customer_id;given_name;family_name;birth_date;customer_type;gender;id_card;id_type;sin;company_name;business_number;legal_form;established_date
100;John;Smith;1976-06-24;P;m0;3213232231;id_card;753679136;;;;
101;James;Jordan;1954-11-07;P;m0;7437682322;id_card;163-679-111;;;;
102;Caroline;Jordan;1991-08-19;P;m0;5907619322;id_card;2281234;;;;
1001;Dr. John;Smith;1978-12-16;P;;88682239496;id_card;0;;;;
1002;Smith;W. John;1978-12-16;P;m0;266805807984498;id_card;095-242-434;;;;
1003;John William;Smith;1978-12-16;P;m0;;;SIN095242434;;;;
1004;Dr. J.W.;Smith;1978-11-16;P;;4334338874158390;id_card;95242433;;;;
1005;John;Smith;1978-11-16;P;m;431768161757282;id_card;95252433;;;;
1006;Smith;John;1978-11-16;P;m0;431768161757282;id_card;;;;;
1007;John;Smiht;1978-11-16;P;;431 7681 6175 7282;id_card;95252433;;;;
1008;Jannet;Watson;1984-06-04;P;;974997714973;id_card;130 692 544;;;;
1009;Jannet Watson;;19840604;P;f;;;130-692-544;;;;
1012;Janette;Smith;1982-01-05;P;f1;54590972345186400;id_card;SIN;;;;
1013;Anton;Lese;1950-09-08;P;m0;;;387-958-572;;;;
1014;Anton;Lesse;1950-09-08;P;m;5532333261917070;id_card;387958572;;;;
1015;Lese;Antony;1950-09-08;P;;;;387-958-572;;;;
1016;Jill;Sturdy;1962-05-20;P;f;;;257-068-114;;;;
1017;Mrs. Jill;Sturdy;1962-05-20;P;f1;5588338811937450;id_card;257068114;;;;
1018;Sandy;Hettinger;1965-09-21;P;f1;5578337851972320;id_card;856527270;;;;
1019;Sandy;Hetinger;1965-09-21;P;f;;;SIN:856527270;;;;
1020;Thomas;Donathan;1966-02-04;P;m0;4130333061917100;id_card;961085248;;;;
1021;Tom;Donatan;1966-02-04;P;m0;;;961-085-248;;;;
1022;Tony;Wimber;1971-03-15;P;m0;4144334461982490;id_card;782665525;;;;
1023;Tony;Winber;1971-03-15;P;;;;782665525;;;;
1024;Tony;Vimber;1971-03-15;P;m;;;782-665-525;;;;
1025;David;Baggerly;1940-03-05;P;m0;;;777873928;;;;
1026;D.;Baggerly;1940-03-05;v;;4167336741917110;passport;;;;;
1027;G.;Boland;1957-10-27;P;m;5530333022082570;id_card;SIN: 776432726;;;;
1028;Gery;Boland;1957-10-27;P;m0;;;776432726;;;;
1029;Gerry;Boland;1957-10-27;P;;;;776432726;;;;
1030;;;;B;;;;;Third Car Rental;123456789 RT 0001;Corporation;1952-03-01
1031;Michael;J.Timber;1977-05-01;P;;L1654-48797-01598;drivers_license;;;;;
1032;;;;B;;;;;Trans Canadian Trucks;493455761 RT 0001;ltd;1989-04-20
1101;;;;B;;;;;Voltquote;456 814 284 RT 0005;prop;1985-06-16
1102;;;;B;;;;;Medtex;332 410 356 RC 0001;corporation;2012-08-31
1103;;;;B;;;;;Silvergreen;653216317 RD 0010;part;2000-01-14
1104;;;;B;;;;;Tinhigh;295234761 RP 0001;corporation;1999-10-29
1105;;;;B;;;;;Overtrans;332465677 RM 0001;corporation;1972-03-10
1106;;;;B;;;;;Sundex;;ltd;1997-05-06
1107;;;;B;;;;;Freshmedia & Freshnews & Fresh fruits;571694388 RC 0001;coop;2501-12-31
1120;;;;B;;;;;AdventureWorks Cycles;335 412 654 RM 0001;LTD;2000-01-18
1121;;;;B;;;;;AdventureWorks Cycles;335 412 654 RM 0001;LTD;2000-01-18
1131;;;;B;;;;;Blue Yonder Airlines;423 523 221 RT 0003;COOP;2004-02-21
1132;;;;B;;;;;Parnell Aerospace;754 412 223 RM 0001;COOP;1982-12-09
1133;;;;B;;;;;Trey Research Inc.;121 412 112 RT 0002;COOP;2011-07-14
1134;;;;B;;;;;Contoso Ltd.;335 463 745 RP 0003;LTD;2004-02-21
