ID;CUSTOMERID;SALEPOINT;STATUS;TYPE;DATESTART;DATETO;PRODUCT;VARIANT
1010;300;LedB01;In force;LINS;20110203;20150731;P;Risk
1011;301;EdmB05;In force;LINS;20111110;20161231;P;Risk
1012;302;LedB01;Proposition;INV;20140430;;D;Capital
1013;303;LedB01;Proposition;GINS;20140430;;C;Protect
1014;304;LedB01;In force;INV;20140430;20140531;I;Dynamic
1015;305;LedB01;In force;GINS;14032013;09202016;H;Car
1016;306;EdmB05;Terminated;INS;26.6.2010;9.9.2012;H;Home
1017;306;EdmB05;Canceled;LINS;2014-05-15;;P;Capital
1101;401;TorC01;Proposition;INV;12.1.2010;1.9.2018;I;Capital
1102;402;LedB01;In force;INV;21.6.2011;1.1.2018;D;Protect
1103;403;TorC01;In force;INV;2.4.2013;2.4.2021;I;Capital