﻿master_code;master_name;descriptionCZ;descriptionEN
DL;Driver's License;Typ dokladu: řidičský průkaz;ID document type: Driver's license
ID;ID Card;Typ dokladu: občanský průkaz;ID document type: ID Card
Passport;Passport;Typ dokladu: cestovní pas;ID document type: Passport