master_code_in;master_name_in;descriptionCZ_in;descriptionEN_in
LedB01;50 St, Leduc;;2-5204 50 St, Leduc, AB T9E 6Z6
EdmB05;103A Ave NW, EDM;;9903-9923 103A Ave NW, Edmonton, AB T5J
TorC01;8500 Leslie Street;;8500 Leslie Street, Markham, L3T 7M8
