program_code;program
RT;GST/HST
RP;payroll
RC;corporate income tax
RM;import/export
RR;registered charity
RD;excise duty
RE;excise tax
RN;insurance premium tax
RG;air travelers security charge
RZ;Information Returns