source_id;first_name;last_name;birth_date;type;gender;id_card;id_type;sin;company_name;business_number;legal_form;established_date;chng_type
H00021;;;;B;;;;;Pineapple;473-637-510-RT-0003;Corporation;1954-08-09;I
H00022;;;;B;;;;;Horizon Systems;543-841-845-RT-0006;ltd;1985-12-09;I
H00311;;;;B;;;;;Green Clear;181-184-128-RR-0006;ltd.;1962-11-07;I
H00312;;;;B;;;;;Sun Technologies;712-085-786-RT-0003;ltd.;1983-12-19;I
H00321;;;;B;;;;;Really Systems;727-578-064-RP-0002;ltd;1962-04-18;I
H00322;;;;B;;;;;Jumpstart Industries;256-086-547-RD-0001;corporation;1977-12-28;I
H04111;;;;B;;;;;Dreamlife Technologies;237-337-084-RZ-0002;corporation;1952-10-31;I
H04112;;;;B;;;;;Liquid Mountain;308-064-682-RT-0003;corporation;1965-06-07;I
H04121;;;;B;;;;;Green Drum Technologies;923-855-316-RT-0002;corporation;1981-04-24;I
H04122;;;;B;;;;;Rubicon Industries;773-406-467-RT-0002;corporation;1994-12-24;I
H04211;;;;B;;;;;Overview Systems;735-675-878-RC-0004;ltd;1973-09-21;I
H04212;;;;B;;;;;Mistral Technologies;176-162-378-RC-0002;ltd.;1959-05-27;I
H04221;;;;B;;;;;Shiki Technologies;954-181-715-RC-0004;ltd;1951-07-31;I
H04222;;;;B;;;;;Electroplastic;936-275-460-RP-0003;Inc;1991-03-11;I
H51111;;;;B;;;;;Yellowstone;974-218-455-RC-0002;ltd.;1981-02-08;I